id,name,model_id:id,group_id:id,perm_read,perm_write,perm_create,perm_unlink

access_busqueda_afiliacion_wizard_tec_informatico,busqueda.afiliacion.wizard,model_busqueda_afiliacion_wizard,base_cuna.tec_informatico,1,1,1,1
access_busqueda_afiliacion_wizard_especialista_integrales,busqueda.afiliacion.wizard,model_busqueda_afiliacion_wizard,base_cuna.especialista_integrales,1,1,1,1

access_afiliacion_organizacion_jefe_ut,afiliacion_organizacion,model_afiliacion_organizacion,base_cuna.jefe_ut,1,0,0,0
access_afiliacion_organizacion_coordinador,afiliacion_organizacion,model_afiliacion_organizacion,base_cuna.coordinador,1,0,0,0
access_afiliacion_organizacion_tec_informatico,afiliacion.organizacion,model_afiliacion_organizacion,base_cuna.tec_informatico,1,1,1,1
access_afiliacion_organizacion_especialista_integrales,afiliacion.organizacion,model_afiliacion_organizacion,base_cuna.especialista_integrales,1,1,1,1
access_afiliacion_organizacion_acompaniante_tecnico,afiliacion.organizacion,model_afiliacion_organizacion,base_cuna.acompaniante_tecnico,1,0,0,0

access_afiliacion_organizacion_lines_jefe_ut,afiliacion.organizacion.lines,model_afiliacion_organizacion_lines,base_cuna.jefe_ut,1,0,0,0
access_afiliacion_organizacion_lines_coordinador,afiliacion.organizacion.lines,model_afiliacion_organizacion_lines,base_cuna.coordinador,1,0,0,0
access_afiliacion_organizacion_lines_tec_informatico,afiliacion.organizacion.lines,model_afiliacion_organizacion_lines,base_cuna.tec_informatico,1,0,0,0
access_afiliacion_organizacion_lines_especialista_integrales,afiliacion.organizacion.lines,model_afiliacion_organizacion_lines,base_cuna.especialista_integrales,1,0,0,0
access_afiliacion_organizacion_lines_acompaniante_tecnico,afiliacion.organizacion.lines,model_afiliacion_organizacion_lines,base_cuna.acompaniante_tecnico,1,0,0,0
access_afiliacion_organizacion_lines_asistente_adm,afiliacion.organizacion.lines,model_afiliacion_organizacion_lines,base_cuna.asistente_adm,1,0,0,0
access_afiliacion_organizacion_lines_gestion_comunal,afiliacion.organizacion.lines,model_afiliacion_organizacion_lines,base_cuna.gestion_comunal,1,0,0,0
access_afiliacion_organizacion_lines_especialista_nutricion,afiliacion.organizacion.lines,model_afiliacion_organizacion_lines,base_cuna.especialista_nutricion,1,1,1,1

access_unidad_familiar_jefe_ut,unidad.familiar,model_unidad_familiar,base_cuna.jefe_ut,1,0,0,0
access_unidad_familiar_coordinador,unidad.familiar,model_unidad_familiar,base_cuna.coordinador,1,0,0,0
access_unidad_familiar_tec_informatico,unidad.familiar,model_unidad_familiar,base_cuna.tec_informatico,1,1,1,1
access_unidad_familiar_especialista_integrales,unidad.familiar,model_unidad_familiar,base_cuna.especialista_integrales,1,1,1,1
access_unidad_familiar_acompaniante_tecnico,unidad.familiar,model_unidad_familiar,base_cuna.acompaniante_tecnico,1,1,1,1

access_vivienda_familia_jefe_ut,vivienda.familia,model_vivienda_familia,base_cuna.jefe_ut,1,0,0,0
access_vivienda_familia_coordinador,vivienda.familia,model_vivienda_familia,base_cuna.coordinador,1,0,0,0
access_vivienda_familia_tec_informatico,vivienda.familia,model_vivienda_familia,base_cuna.tec_informatico,1,1,1,1
access_vivienda_familia_especialista_integrales,vivienda.familia,model_vivienda_familia,base_cuna.especialista_integrales,1,1,1,1
access_vivienda_familia_acompaniante_tecnico,vivienda.familia,model_vivienda_familia,base_cuna.acompaniante_tecnico,1,1,1,1

access_integrante_unidad_familiar_jefe_ut,integrante.unidad.familiar,model_integrante_unidad_familiar,base_cuna.jefe_ut,1,0,0,0
access_integrante_unidad_familiar_coordinador,integrante.unidad.familiar,model_integrante_unidad_familiar,base_cuna.coordinador,1,0,0,0
access_integrante_unidad_familiar_tec_informatico,integrante.unidad.familiar,model_integrante_unidad_familiar,base_cuna.tec_informatico,1,1,1,1
access_integrante_unidad_familiar_especialista_integrales,integrante.unidad.familiar,model_integrante_unidad_familiar,base_cuna.especialista_integrales,1,1,1,1
access_integrante_unidad_familiar_acompaniante_tecnico,integrante.unidad.familiar,model_integrante_unidad_familiar,base_cuna.acompaniante_tecnico,1,1,1,1

access_migracion_familia_jefe_ut,migracion.familia,model_migracion_familia,base_cuna.jefe_ut,1,0,0,0
access_migracion_familia_coordinador,migracion.familia,model_migracion_familia,base_cuna.coordinador,1,0,0,0
access_migracion_familia_tec_informatico,migracion.familia,model_migracion_familia,base_cuna.tec_informatico,1,1,1,1
access_migracion_familia_especialista_integrales,migracion.familia,model_migracion_familia,base_cuna.especialista_integrales,1,1,1,1
access_migracion_familia_acompaniante_tecnico,migracion.familia,model_migracion_familia,base_cuna.acompaniante_tecnico,1,0,0,0

access_tipo_parentesco_jefe_ut,tipo.parentesco,model_tipo_parentesco,base_cuna.jefe_ut,1,0,0,0
access_tipo_parentesco_coordinador,tipo.parentesco,model_tipo_parentesco,base_cuna.coordinador,1,0,0,0
access_tipo_parentesco_tec_informatico,tipo.parentesco,model_tipo_parentesco,base_cuna.tec_informatico,1,0,0,0
access_tipo_parentesco_especialista_integrales,tipo.parentesco,model_tipo_parentesco,base_cuna.especialista_integrales,1,0,0,0
access_tipo_parentesco_acompaniante_tecnico,tipo.parentesco,model_tipo_parentesco,base_cuna.acompaniante_tecnico,1,0,0,0
access_tipo_parentesco_especialista_nutricion,tipo.parentesco,model_tipo_parentesco,base_cuna.especialista_nutricion,1,0,0,0
access_tipo_parentesco_servicios_terceros,tipo.parentesco,model_tipo_parentesco,base_cuna.servicios_terceros,1,0,0,0
access_tipo_parentesco_asistente_adm,tipo.parentesco,model_tipo_parentesco,base_cuna.asistente_adm,1,0,0,0

access_tipo_discapacidad_jefe_ut,tipo.discapacidad,model_tipo_discapacidad,base_cuna.jefe_ut,1,0,0,0
access_tipo_discapacidad_coordinador,tipo.discapacidad,model_tipo_discapacidad,base_cuna.coordinador,1,0,0,0
access_tipo_discapacidad_tec_informatico,tipo.discapacidad,model_tipo_discapacidad,base_cuna.tec_informatico,1,0,0,0
access_tipo_discapacidad_especialista_integrales,tipo.discapacidad,model_tipo_discapacidad,base_cuna.especialista_integrales,1,0,0,0
access_tipo_discapacidad_acompaniante_tecnico,tipo.discapacidad,model_tipo_discapacidad,base_cuna.acompaniante_tecnico,1,0,0,0
access_tipo_discapacidad_especialista_nutricion,tipo.discapacidad,model_tipo_discapacidad,base_cuna.especialista_nutricion,1,0,0,0
access_tipo_discapacidad_servicios_terceros,tipo.discapacidad,model_tipo_discapacidad,base_cuna.servicios_terceros,1,0,0,0
access_tipo_discapacidad_asistente_adm,tipo.discapacidad,model_tipo_discapacidad,base_cuna.asistente_adm,1,0,0,0

access_programa_social_jefe_ut,programa.social,model_programa_social,base_cuna.jefe_ut,1,0,0,0
access_programa_social_coordinador,programa.social,model_programa_social,base_cuna.coordinador,1,0,0,0
access_programa_social_tec_informatico,programa.social,model_programa_social,base_cuna.tec_informatico,1,0,0,0
access_programa_social_especialista_integrales,programa.social,model_programa_social,base_cuna.especialista_integrales,1,0,0,0
access_programa_social_acompaniante_tecnico,programa.social,model_programa_social,base_cuna.acompaniante_tecnico,1,0,0,0
access_programa_social_especialista_nutricion,programa.social,model_programa_social,base_cuna.especialista_nutricion,1,0,0,0
access_programa_social_servicios_terceros,programa.social,model_programa_social,base_cuna.servicios_terceros,1,0,0,0
access_programa_social_asistente_adm,programa.social,model_programa_social,base_cuna.asistente_adm,1,0,0,0

access_tipo_persona_jefe_ut,tipo.persona,model_tipo_persona,base_cuna.jefe_ut,1,0,0,0
access_tipo_persona_coordinador,tipo.persona,model_tipo_persona,base_cuna.coordinador,1,0,0,0
access_tipo_persona_tec_informatico,tipo.persona,model_tipo_persona,base_cuna.tec_informatico,1,0,0,0
access_tipo_persona_especialista_integrales,tipo.persona,model_tipo_persona,base_cuna.especialista_integrales,1,0,0,0
access_tipo_persona_acompaniante_tecnico,tipo.persona,model_tipo_persona,base_cuna.acompaniante_tecnico,1,0,0,0
access_tipo_persona_especialista_nutricion,tipo.persona,model_tipo_persona,base_cuna.especialista_nutricion,1,0,0,0
access_tipo_persona_servicios_terceros,tipo.persona,model_tipo_persona,base_cuna.servicios_terceros,1,0,0,0
access_tipo_persona_asistente_adm,tipo.persona,model_tipo_persona,base_cuna.asistente_adm,1,1,1,1

access_tabla_anios_jefe_ut,tabla.anios,model_tabla_anios,base_cuna.jefe_ut,1,0,0,0
access_tabla_anios_coordinador,tabla.anios,model_tabla_anios,base_cuna.coordinador,1,0,0,0
access_tabla_anios_tec_informatico,tabla.anios,model_tabla_anios,base_cuna.tec_informatico,1,0,0,0
access_tabla_anios_especialista_integrales,tabla.anios,model_tabla_anios,base_cuna.especialista_integrales,1,1,1,1
access_tabla_anios_acompaniante_tecnico,tabla.anios,model_tabla_anios,base_cuna.acompaniante_tecnico,1,0,0,0
access_tabla_anios_especialista_nutricion,tabla.anios,model_tabla_anios,base_cuna.especialista_nutricion,1,0,0,0
access_tabla_anios_servicios_terceros,tabla.anios,model_tabla_anios,base_cuna.servicios_terceros,1,0,0,0
access_tabla_anios_asistente_adm,tabla.anios,model_tabla_anios,base_cuna.asistente_adm,1,0,0,0

access_meses_dias_jefe_ut,meses.dias,model_meses_dias,base_cuna.jefe_ut,1,0,0,0
access_meses_dias_coordinador,meses.dias,model_meses_dias,base_cuna.coordinador,1,0,0,0
access_meses_dias_tec_informatico,meses.dias,model_meses_dias,base_cuna.tec_informatico,1,0,0,0
access_meses_dias_especialista_integrales,meses.dias,model_meses_dias,base_cuna.especialista_integrales,1,0,0,0
access_meses_dias_acompaniante_tecnico,meses.dias,model_meses_dias,base_cuna.acompaniante_tecnico,1,0,0,0
access_meses_dias_especialista_nutricion,meses.dias,model_meses_dias,base_cuna.especialista_nutricion,1,0,0,0
access_meses_dias_servicios_terceros,meses.dias,model_meses_dias,base_cuna.servicios_terceros,1,0,0,0
access_meses_dias_asistente_adm,meses.dias,model_meses_dias,base_cuna.asistente_adm,1,0,0,0

access_modulo_local_jefe_ut,modulo.local,model_modulo_local,base_cuna.jefe_ut,1,0,0,0
access_modulo_local_coordinador,modulo.local,model_modulo_local,base_cuna.coordinador,1,1,1,1
access_modulo_local_tec_informatico,modulo.local,model_modulo_local,base_cuna.tec_informatico,1,1,1,1
access_modulo_local_especialista_integrales,modulo.local,model_modulo_local,base_cuna.especialista_integrales,1,0,0,0
access_modulo_local_acompaniante_tecnico,modulo.local,model_modulo_local,base_cuna.acompaniante_tecnico,1,0,0,0
access_modulo_local_especialista_nutricion,modulo.local,model_modulo_local,base_cuna.especialista_nutricion,1,0,0,0
access_modulo_local_servicios_terceros,modulo.local,model_modulo_local,base_cuna.servicios_terceros,1,0,0,0
access_modulo_local_asistente_adm,modulo.local,model_modulo_local,base_cuna.asistente_adm,1,0,0,0

access_salas_local_jefe_ut,salas.local,model_salas_local,base_cuna.jefe_ut,1,0,0,0
access_salas_local_coordinador,salas.local,model_salas_local,base_cuna.coordinador,1,1,1,1
access_salas_local_tec_informatico,salas.local,model_salas_local,base_cuna.tec_informatico,1,1,1,1
access_salas_local_especialista_integrales,salas.local,model_salas_local,base_cuna.especialista_integrales,1,0,0,0
access_salas_local_acompaniante_tecnico,salas.local,model_salas_local,base_cuna.acompaniante_tecnico,1,0,0,0
access_salas_local_especialista_nutricion,salas.local,model_salas_local,base_cuna.especialista_nutricion,1,0,0,0
access_salas_local_servicios_terceros,salas.local,model_salas_local,base_cuna.servicios_terceros,1,0,0,0
access_salas_local_asistente_adm,salas.local,model_salas_local,base_cuna.asistente_adm,1,0,0,0

access_ambientes_local_jefe_ut,ambientes.local,model_ambientes_local,base_cuna.jefe_ut,1,0,0,0
access_ambientes_local_coordinador,ambientes.local,model_ambientes_local,base_cuna.coordinador,1,1,1,1
access_ambientes_local_tec_informatico,ambientes.local,model_ambientes_local,base_cuna.tec_informatico,1,1,1,1
access_ambientes_local_especialista_integrales,ambientes.local,model_ambientes_local,base_cuna.especialista_integrales,1,0,0,0
access_ambientes_local_acompaniante_tecnico,ambientes.local,model_ambientes_local,base_cuna.acompaniante_tecnico,1,0,0,0
access_ambientes_local_especialista_nutricion,ambientes.local,model_ambientes_local,base_cuna.especialista_nutricion,1,0,0,0
access_ambientes_local_servicios_terceros,ambientes.local,model_ambientes_local,base_cuna.servicios_terceros,1,0,0,0
access_ambientes_local_asistente_adm,ambientes.local,model_ambientes_local,base_cuna.asistente_adm,1,0,0,0

access_pncm_infra_local_jefe_ut,pncm.infra.local,pncm_infra.model_pncm_infra_local,base_cuna.jefe_ut,1,0,0,0
access_pncm_infra_local_coordinador,pncm.infra.local,pncm_infra.model_pncm_infra_local,base_cuna.coordinador,1,1,1,1
access_pncm_infra_local_tec_informatico,pncm.infra.local,pncm_infra.model_pncm_infra_local,base_cuna.tec_informatico,1,1,1,1
access_pncm_infra_local_especialista_integrales,pncm.infra.local,pncm_infra.model_pncm_infra_local,base_cuna.especialista_integrales,1,0,0,0
access_pncm_infra_local_acompaniante_tecnico,pncm.infra.local,pncm_infra.model_pncm_infra_local,base_cuna.acompaniante_tecnico,1,0,0,0
access_pncm_infra_local_especialista_nutricion,pncm.infra.local,pncm_infra.model_pncm_infra_local,base_cuna.especialista_nutricion,1,1,1,1
access_pncm_infra_local_servicios_terceros,pncm.infra.local,pncm_infra.model_pncm_infra_local,base_cuna.servicios_terceros,1,0,0,0
access_pncm_infra_local_asistente_adm,pncm.infra.local,pncm_infra.model_pncm_infra_local,base_cuna.asistente_adm,1,0,0,0
access_pncm_infra_local_gestion_comunal,pncm.infra.local,pncm_infra.model_pncm_infra_local,base_cuna.gestion_comunal,1,0,0,0

access_pncm_infra_local_informes_jefe_ut,pncm.infra.local.informes,pncm_infra.model_pncm_infra_local_informes,base_cuna.jefe_ut,1,0,0,0
access_pncm_infra_local_informes_coordinador,pncm.infra.local.informes,pncm_infra.model_pncm_infra_local_informes,base_cuna.coordinador,1,1,1,1
access_pncm_infra_local_informes_tec_informatico,pncm.infra.local.informes,pncm_infra.model_pncm_infra_local_informes,base_cuna.tec_informatico,1,1,1,1
access_pncm_infra_local_informes_especialista_integrales,pncm.infra.local.informes,pncm_infra.model_pncm_infra_local_informes,base_cuna.especialista_integrales,1,0,0,0
access_pncm_infra_local_informes_acompaniante_tecnico,pncm.infra.local.informes,pncm_infra.model_pncm_infra_local_informes,base_cuna.acompaniante_tecnico,1,0,0,0
access_pncm_infra_local_informes_especialista_nutricion,pncm.infra.local.informes,pncm_infra.model_pncm_infra_local_informes,base_cuna.especialista_nutricion,1,1,1,1
access_pncm_infra_local_informes_servicios_terceros,pncm.infra.local.informes,pncm_infra.model_pncm_infra_local_informes,base_cuna.servicios_terceros,1,0,0,0
access_pncm_infra_local_informes_asistente_adm,pncm.infra.local.informes,pncm_infra.model_pncm_infra_local_informes,base_cuna.asistente_adm,1,0,0,0

access_pncm_infra_local_actas_afectacion_jefe_ut,pncm.infra.local.actas_afectacion,pncm_infra.model_pncm_infra_local_actas_afectacion,base_cuna.jefe_ut,1,0,0,0
access_pncm_infra_local_actas_afectacion_coordinador,pncm.infra.local.actas_afectacion,pncm_infra.model_pncm_infra_local_actas_afectacion,base_cuna.coordinador,1,1,1,1
access_pncm_infra_local_actas_afectacion_tec_informatico,pncm.infra.local.actas_afectacion,pncm_infra.model_pncm_infra_local_actas_afectacion,base_cuna.tec_informatico,1,1,1,1
access_pncm_infra_local_actas_afectacion_especialista_integrales,pncm.infra.local.actas_afectacion,pncm_infra.model_pncm_infra_local_actas_afectacion,base_cuna.especialista_integrales,1,0,0,0
access_pncm_infra_local_actas_afectacion_acompaniante_tecnico,pncm.infra.local.actas_afectacion,pncm_infra.model_pncm_infra_local_actas_afectacion,base_cuna.acompaniante_tecnico,1,0,0,0
access_pncm_infra_local_actas_afectacion_especialista_nutricion,pncm.infra.local.actas_afectacion,pncm_infra.model_pncm_infra_local_actas_afectacion,base_cuna.especialista_nutricion,1,1,1,1
access_pncm_infra_local_actas_afectacion_servicios_terceros,pncm.infra.local.actas_afectacion,pncm_infra.model_pncm_infra_local_actas_afectacion,base_cuna.servicios_terceros,1,0,0,0
access_pncm_infra_local_actas_afectacion_asistente_adm,pncm.infra.local.actas_afectacion,pncm_infra.model_pncm_infra_local_actas_afectacion,base_cuna.asistente_adm,1,0,0,0

access_pncm_infra_local_foto_jefe_ut,pncm.infra.local.foto,pncm_infra.model_pncm_infra_local_foto,base_cuna.jefe_ut,1,0,0,0
access_pncm_infra_local_foto_coordinador,pncm.infra.local.foto,pncm_infra.model_pncm_infra_local_foto,base_cuna.coordinador,1,1,1,1
access_pncm_infra_local_foto_tec_informatico,pncm.infra.local.foto,pncm_infra.model_pncm_infra_local_foto,base_cuna.tec_informatico,1,1,1,1
access_pncm_infra_local_foto_especialista_integrales,pncm.infra.local.foto,pncm_infra.model_pncm_infra_local_foto,base_cuna.especialista_integrales,1,0,0,0
access_pncm_infra_local_foto_acompaniante_tecnico,pncm.infra.local.foto,pncm_infra.model_pncm_infra_local_foto,base_cuna.acompaniante_tecnico,1,0,0,0
access_pncm_infra_local_foto_especialista_nutricion,pncm.infra.local.foto,pncm_infra.model_pncm_infra_local_foto,base_cuna.especialista_nutricion,1,1,1,1
access_pncm_infra_local_foto_servicios_terceros,pncm.infra.local.foto,pncm_infra.model_pncm_infra_local_foto,base_cuna.servicios_terceros,1,0,0,0
access_pncm_infra_local_foto_asistente_adm,pncm.infra.local.foto,pncm_infra.model_pncm_infra_local_foto,base_cuna.asistente_adm,1,0,0,0

access_pncm_infra_local_convenios_sustentatorio_jefe_ut,pncm.infra.local.convenios.sustentatorio,pncm_infra.model_pncm_infra_local_convenios_sustentatorio,base_cuna.jefe_ut,1,0,0,0
access_pncm_infra_local_convenios_sustentatorio_coordinador,pncm.infra.local.convenios.sustentatorio,pncm_infra.model_pncm_infra_local_convenios_sustentatorio,base_cuna.coordinador,1,1,1,1
access_pncm_infra_local_convenios_sustentatorio_tec_informatico,pncm.infra.local.convenios.sustentatorio,pncm_infra.model_pncm_infra_local_convenios_sustentatorio,base_cuna.tec_informatico,1,1,1,1
access_pncm_infra_local_convenios_sustentatorio_especialista_integrales,pncm.infra.local.convenios.sustentatorio,pncm_infra.model_pncm_infra_local_convenios_sustentatorio,base_cuna.especialista_integrales,1,0,0,0
access_pncm_infra_local_convenios_sustentatorio_acompaniante_tecnico,pncm.infra.local.convenios.sustentatorio,pncm_infra.model_pncm_infra_local_convenios_sustentatorio,base_cuna.acompaniante_tecnico,1,0,0,0
access_pncm_infra_local_convenios_sustentatorio_especialista_nutricion,pncm.infra.local.convenios.sustentatorio,pncm_infra.model_pncm_infra_local_convenios_sustentatorio,base_cuna.especialista_nutricion,1,1,1,1
access_pncm_infra_local_convenios_sustentatorio_servicios_terceros,pncm.infra.local.convenios.sustentatorio,pncm_infra.model_pncm_infra_local_convenios_sustentatorio,base_cuna.servicios_terceros,1,0,0,0
access_pncm_infra_local_convenios_sustentatorio_asistente_adm,pncm.infra.local.convenios.sustentatorio,pncm_infra.model_pncm_infra_local_convenios_sustentatorio,base_cuna.asistente_adm,1,0,0,0

access_pncm_infra_local_preevaluacion_jefe_ut,pncm.infra.local.preevaluacion,pncm_infra.model_pncm_infra_local_preevaluacion,base_cuna.jefe_ut,1,0,0,0
access_pncm_infra_local_preevaluacion_coordinador,pncm.infra.local.preevaluacion,pncm_infra.model_pncm_infra_local_preevaluacion,base_cuna.coordinador,1,1,1,1
access_pncm_infra_local_preevaluacion_tec_informatico,pncm.infra.local.preevaluacion,pncm_infra.model_pncm_infra_local_preevaluacion,base_cuna.tec_informatico,1,1,1,1
access_pncm_infra_local_preevaluacion_especialista_integrales,pncm.infra.local.preevaluacion,pncm_infra.model_pncm_infra_local_preevaluacion,base_cuna.especialista_integrales,1,0,0,0
access_pncm_infra_local_preevaluacion_acompaniante_tecnico,pncm.infra.local.preevaluacion,pncm_infra.model_pncm_infra_local_preevaluacion,base_cuna.acompaniante_tecnico,1,0,0,0
access_pncm_infra_local_preevaluacion_especialista_nutricion,pncm.infra.local.preevaluacion,pncm_infra.model_pncm_infra_local_preevaluacion,base_cuna.especialista_nutricion,1,1,1,1
access_pncm_infra_local_preevaluacion_servicios_terceros,pncm.infra.local.preevaluacion,pncm_infra.model_pncm_infra_local_preevaluacion,base_cuna.servicios_terceros,1,0,0,0
access_pncm_infra_local_preevaluacion_asistente_adm,pncm.infra.local.preevaluacion,pncm_infra.model_pncm_infra_local_preevaluacion,base_cuna.asistente_adm,1,0,0,0

access_pncm_infra_suspension_local_jefe_ut,pncm.infra.suspension.local,pncm_infra.model_pncm_infra_suspension_local,base_cuna.jefe_ut,1,0,0,0
access_pncm_infra_suspension_local_coordinador,pncm.infra.suspension.local,pncm_infra.model_pncm_infra_suspension_local,base_cuna.coordinador,1,1,1,1
access_pncm_infra_suspension_local_tec_informatico,pncm.infra.suspension.local,pncm_infra.model_pncm_infra_suspension_local,base_cuna.tec_informatico,1,1,1,1
access_pncm_infra_suspension_local_especialista_integrales,pncm.infra.suspension.local,pncm_infra.model_pncm_infra_suspension_local,base_cuna.especialista_integrales,1,0,0,0
access_pncm_infra_suspension_local_acompaniante_tecnico,pncm.infra.suspension.local,pncm_infra.model_pncm_infra_suspension_local,base_cuna.acompaniante_tecnico,1,0,0,0
access_pncm_infra_suspension_local_especialista_nutricion,pncm.infra.suspension.local,pncm_infra.model_pncm_infra_suspension_local,base_cuna.especialista_nutricion,1,1,1,1
access_pncm_infra_suspension_local_servicios_terceros,pncm.infra.suspension.local,pncm_infra.model_pncm_infra_suspension_local,base_cuna.servicios_terceros,1,0,0,0
access_pncm_infra_suspension_local_asistente_adm,pncm.infra.suspension.local,pncm_infra.model_pncm_infra_suspension_local,base_cuna.asistente_adm,1,0,0,0

access_pncm_infra_local_presupuesto_jefe_ut,pncm.infra.local.presupuesto,pncm_infra.model_pncm_infra_local_presupuesto,base_cuna.jefe_ut,1,0,0,0
access_pncm_infra_local_presupuesto_coordinador,pncm.infra.local.presupuesto,pncm_infra.model_pncm_infra_local_presupuesto,base_cuna.coordinador,1,1,1,1
access_pncm_infra_local_presupuesto_tec_informatico,pncm.infra.local.presupuesto,pncm_infra.model_pncm_infra_local_presupuesto,base_cuna.tec_informatico,1,1,1,1
access_pncm_infra_local_presupuesto_especialista_integrales,pncm.infra.local.presupuesto,pncm_infra.model_pncm_infra_local_presupuesto,base_cuna.especialista_integrales,1,0,0,0
access_pncm_infra_local_presupuesto_acompaniante_tecnico,pncm.infra.local.presupuesto,pncm_infra.model_pncm_infra_local_presupuesto,base_cuna.acompaniante_tecnico,1,0,0,0
access_pncm_infra_local_presupuesto_especialista_nutricion,pncm.infra.local.presupuesto,pncm_infra.model_pncm_infra_local_presupuesto,base_cuna.especialista_nutricion,1,1,1,1
access_pncm_infra_local_presupuesto_servicios_terceros,pncm.infra.local.presupuesto,pncm_infra.model_pncm_infra_local_presupuesto,base_cuna.servicios_terceros,1,0,0,0
access_pncm_infra_local_presupuesto_asistente_adm,pncm.infra.local.presupuesto,pncm_infra.model_pncm_infra_local_presupuesto,base_cuna.asistente_adm,1,0,0,0

access_pncm_comitegestion_jefe_ut,pncm.comitegestion,pncm_comite_gestion.model_pncm_comitegestion,base_cuna.jefe_ut,1,0,0,0
access_pncm_comitegestion_coordinador,pncm.comitegestion,pncm_comite_gestion.model_pncm_comitegestion,base_cuna.coordinador,1,0,0,0
access_pncm_comitegestion_tec_informatico,pncm.comitegestion,pncm_comite_gestion.model_pncm_comitegestion,base_cuna.tec_informatico,1,1,1,1
access_pncm_comitegestion_especialista_integrales,pncm.comitegestion,pncm_comite_gestion.model_pncm_comitegestion,base_cuna.especialista_integrales,1,1,1,1
access_pncm_comitegestion_acompaniante_tecnico,pncm.comitegestion,pncm_comite_gestion.model_pncm_comitegestion,base_cuna.acompaniante_tecnico,1,0,0,0
access_pncm_comitegestion_especialista_nutricion,pncm.comitegestion,pncm_comite_gestion.model_pncm_comitegestion,base_cuna.especialista_nutricion,1,0,0,0
access_pncm_comitegestion_servicios_terceros,pncm.comitegestion,pncm_comite_gestion.model_pncm_comitegestion,base_cuna.servicios_terceros,1,0,0,0
access_pncm_comitegestion_asistente_adm,pncm.comitegestion,pncm_comite_gestion.model_pncm_comitegestion,base_cuna.asistente_adm,1,0,0,0
access_pncm_comitegestion_gestion_comunal,pncm.comitegestion,pncm_comite_gestion.model_pncm_comitegestion,base_cuna.gestion_comunal,1,0,0,0

access_entidad_bancaria_jefe_ut,entidad.bancaria,base_cuna.model_entidad_bancaria,base_cuna.jefe_ut,1,0,0,0
access_entidad_bancaria_coordinador,entidad.bancaria,base_cuna.model_entidad_bancaria,base_cuna.coordinador,1,0,0,0
access_entidad_bancaria_tec_informatico,entidad.bancaria,base_cuna.model_entidad_bancaria,base_cuna.tec_informatico,1,1,1,1
access_entidad_bancaria_especialista_integrales,entidad.bancaria,base_cuna.model_entidad_bancaria,base_cuna.especialista_integrales,1,1,1,1
access_entidad_bancaria_acompaniante_tecnico,entidad.bancaria,base_cuna.model_entidad_bancaria,base_cuna.acompaniante_tecnico,1,0,0,0
access_entidad_bancaria_especialista_nutricion,entidad.bancaria,base_cuna.model_entidad_bancaria,base_cuna.especialista_nutricion,1,0,0,0
access_entidad_bancaria_servicios_terceros,entidad.bancaria,base_cuna.model_entidad_bancaria,base_cuna.servicios_terceros,1,0,0,0
access_entidad_bancaria_asistente_adm,entidad.bancaria,base_cuna.model_entidad_bancaria,base_cuna.asistente_adm,1,0,0,0
access_entidad_bancaria_gestion_comunal,entidad.bancaria,base_cuna.model_entidad_bancaria,base_cuna.gestion_comunal,1,0,0,0

access_hr_department_jefe_ut,hr.department,hr.model_hr_department,base_cuna.jefe_ut,1,0,0,0
access_hr_department_coordinador,hr.department,hr.model_hr_department,base_cuna.coordinador,1,0,0,0
access_hr_department_tec_informatico,hr.department,hr.model_hr_department,base_cuna.tec_informatico,1,1,1,1
access_hr_department_especialista_integrales,hr.department,hr.model_hr_department,base_cuna.especialista_integrales,1,1,1,1
access_hr_department_acompaniante_tecnico,hr.department,hr.model_hr_department,base_cuna.acompaniante_tecnico,1,0,0,0
access_hr_department_especialista_nutricion,hr.department,hr.model_hr_department,base_cuna.especialista_nutricion,1,0,0,0
access_hr_department_servicios_terceros,hr.department,hr.model_hr_department,base_cuna.servicios_terceros,1,0,0,0
access_hr_department_asistente_adm,hr.department,hr.model_hr_department,base_cuna.asistente_adm,1,0,0,0

access_pncm_comitegestion_intervencion_jefe_ut,pncm.comitegestion.intervencion,pncm_comite_gestion.model_pncm_comitegestion_intervencion,base_cuna.jefe_ut,1,0,0,0
access_pncm_comitegestion_intervencion_coordinador,pncm.comitegestion.intervencion,pncm_comite_gestion.model_pncm_comitegestion_intervencion,base_cuna.coordinador,1,0,0,0
access_pncm_comitegestion_intervencion_tec_informatico,pncm.comitegestion.intervencion,pncm_comite_gestion.model_pncm_comitegestion_intervencion,base_cuna.tec_informatico,1,1,1,1
access_pncm_comitegestion_intervencion_especialista_integrales,pncm.comitegestion.intervencion,pncm_comite_gestion.model_pncm_comitegestion_intervencion,base_cuna.especialista_integrales,1,1,1,1
access_pncm_comitegestion_intervencion_acompaniante_tecnico,pncm.comitegestion.intervencion,pncm_comite_gestion.model_pncm_comitegestion_intervencion,base_cuna.acompaniante_tecnico,1,0,0,0
access_pncm_comitegestion_intervencion_especialista_nutricion,pncm.comitegestion.intervencion,pncm_comite_gestion.model_pncm_comitegestion_intervencion,base_cuna.especialista_nutricion,1,0,0,0
access_pncm_comitegestion_intervencion_servicios_terceros,pncm.comitegestion.intervencion,pncm_comite_gestion.model_pncm_comitegestion_intervencion,base_cuna.servicios_terceros,1,0,0,0
access_pncm_comitegestion_intervencion_asistente_adm,pncm.comitegestion.intervencion,pncm_comite_gestion.model_pncm_comitegestion_intervencion,base_cuna.asistente_adm,1,0,0,0
access_pncm_comitegestion_intervencion_gestion_comunal,pncm.comitegestion.intervencion,pncm_comite_gestion.model_pncm_comitegestion_intervencion,base_cuna.gestion_comunal,1,0,0,0

access_pncm_ambito_intervencion_jefe_ut,pncm.ambito.intervencion,hr_department_ut.model_pncm_ambito_intervencion,base_cuna.jefe_ut,1,0,0,0
access_pncm_ambito_intervencion_coordinador,pncm.ambito.intervencion,hr_department_ut.model_pncm_ambito_intervencion,base_cuna.coordinador,1,0,0,0
access_pncm_ambito_intervencion_tec_informatico,pncm.ambito.intervencion,hr_department_ut.model_pncm_ambito_intervencion,base_cuna.tec_informatico,1,1,1,1
access_pncm_ambito_intervencion_especialista_integrales,pncm.ambito.intervencion,hr_department_ut.model_pncm_ambito_intervencion,base_cuna.especialista_integrales,1,1,1,1
access_pncm_ambito_intervencion_acompaniante_tecnico,pncm.ambito.intervencion,hr_department_ut.model_pncm_ambito_intervencion,base_cuna.acompaniante_tecnico,1,0,0,0
access_pncm_ambito_intervencion_especialista_nutricion,pncm.ambito.intervencion,hr_department_ut.model_pncm_ambito_intervencion,base_cuna.especialista_nutricion,1,0,0,0
access_pncm_ambito_intervencion_servicios_terceros,pncm.ambito.intervencion,hr_department_ut.model_pncm_ambito_intervencion,base_cuna.servicios_terceros,1,0,0,0
access_pncm_ambito_intervencion_asistente_adm,pncm.ambito.intervencion,hr_department_ut.model_pncm_ambito_intervencion,base_cuna.asistente_adm,1,0,0,0

access_pncm_comite_metas_historicas_jefe_ut,pncm.comite.metas.historicas,pncm_comite_gestion.model_pncm_comite_metas_historicas,base_cuna.jefe_ut,1,0,0,0
access_pncm_comite_metas_historicas_coordinador,pncm.comite.metas.historicas,pncm_comite_gestion.model_pncm_comite_metas_historicas,base_cuna.coordinador,1,0,0,0
access_pncm_comite_metas_historicas_tec_informatico,pncm.comite.metas.historicas,pncm_comite_gestion.model_pncm_comite_metas_historicas,base_cuna.tec_informatico,1,1,1,1
access_pncm_comite_metas_historicas_especialista_integrales,pncm.comite.metas.historicas,pncm_comite_gestion.model_pncm_comite_metas_historicas,base_cuna.especialista_integrales,1,1,1,1
access_pncm_comite_metas_historicas_acompaniante_tecnico,pncm.comite.metas.historicas,pncm_comite_gestion.model_pncm_comite_metas_historicas,base_cuna.acompaniante_tecnico,1,0,0,0
access_pncm_comite_metas_historicas_especialista_nutricion,pncm.comite.metas.historicas,pncm_comite_gestion.model_pncm_comite_metas_historicas,base_cuna.especialista_nutricion,1,0,0,0
access_pncm_comite_metas_historicas_servicios_terceros,pncm.comite.metas.historicas,pncm_comite_gestion.model_pncm_comite_metas_historicas,base_cuna.servicios_terceros,1,0,0,0
access_pncm_comite_metas_historicas_asistente_adm,pncm.comite.metas.historicas,pncm_comite_gestion.model_pncm_comite_metas_historicas,base_cuna.asistente_adm,1,0,0,0
access_pncm_comite_metas_historicas_gestion_comunal,pncm.comite.metas.historicas,pncm_comite_gestion.model_pncm_comite_metas_historicas,base_cuna.gestion_comunal,1,1,1,1

access_metas_programadas_jefe_ut,metas.programadas,pncm_comite_gestion.model_metas_programadas,base_cuna.jefe_ut,1,0,0,0
access_metas_programadas_coordinador,metas.programadas,pncm_comite_gestion.model_metas_programadas,base_cuna.coordinador,1,0,0,0
access_metas_programadas_tec_informatico,metas.programadas,pncm_comite_gestion.model_metas_programadas,base_cuna.tec_informatico,1,1,1,1
access_metas_programadas_especialista_integrales,metas.programadas,pncm_comite_gestion.model_metas_programadas,base_cuna.especialista_integrales,1,1,1,1
access_metas_programadas_acompaniante_tecnico,metas.programadas,pncm_comite_gestion.model_metas_programadas,base_cuna.acompaniante_tecnico,1,0,0,0
access_metas_programadas_especialista_nutricion,metas.programadas,pncm_comite_gestion.model_metas_programadas,base_cuna.especialista_nutricion,1,0,0,0
access_metas_programadas_servicios_terceros,metas.programadas,pncm_comite_gestion.model_metas_programadas,base_cuna.servicios_terceros,1,0,0,0
access_metas_programadas_asistente_adm,metas.programadas,pncm_comite_gestion.model_metas_programadas,base_cuna.asistente_adm,1,0,0,0
access_metas_programadas_gestion_comunal,metas.programadas,pncm_comite_gestion.model_metas_programadas,base_cuna.gestion_comunal,1,0,0,0

access_pncm_comitegestion_actorcomunal_jefe_ut,pncm.comitegestion.actorcomunal,pncm_comite_gestion.model_pncm_comitegestion_actorcomunal,base_cuna.jefe_ut,1,0,0,0
access_pncm_comitegestion_actorcomunal_coordinador,pncm.comitegestion.actorcomunal,pncm_comite_gestion.model_pncm_comitegestion_actorcomunal,base_cuna.coordinador,1,0,0,0
access_pncm_comitegestion_actorcomunal_tec_informatico,pncm.comitegestion.actorcomunal,pncm_comite_gestion.model_pncm_comitegestion_actorcomunal,base_cuna.tec_informatico,1,1,1,1
access_pncm_comitegestion_actorcomunal_especialista_integrales,pncm.comitegestion.actorcomunal,pncm_comite_gestion.model_pncm_comitegestion_actorcomunal,base_cuna.especialista_integrales,1,1,1,1
access_pncm_comitegestion_actorcomunal_acompaniante_tecnico,pncm.comitegestion.actorcomunal,pncm_comite_gestion.model_pncm_comitegestion_actorcomunal,base_cuna.acompaniante_tecnico,1,0,0,0
access_pncm_comitegestion_actorcomunal_especialista_nutricion,pncm.comitegestion.actorcomunal,pncm_comite_gestion.model_pncm_comitegestion_actorcomunal,base_cuna.especialista_nutricion,1,0,0,0
access_pncm_comitegestion_actorcomunal_servicios_terceros,pncm.comitegestion.actorcomunal,pncm_comite_gestion.model_pncm_comitegestion_actorcomunal,base_cuna.servicios_terceros,1,0,0,0
access_pncm_comitegestion_actorcomunal_asistente_adm,pncm.comitegestion.actorcomunal,pncm_comite_gestion.model_pncm_comitegestion_actorcomunal,base_cuna.asistente_adm,1,0,0,0

access_pncm_comite_equipo_tecnico_jefe_ut,pncm.comite.equipo.tecnico,pncm_comite_gestion.model_pncm_comite_equipo_tecnico,base_cuna.jefe_ut,1,0,0,0
access_pncm_comite_equipo_tecnico_coordinador,pncm.comite.equipo.tecnico,pncm_comite_gestion.model_pncm_comite_equipo_tecnico,base_cuna.coordinador,1,0,0,0
access_pncm_comite_equipo_tecnico_tec_informatico,pncm.comite.equipo.tecnico,pncm_comite_gestion.model_pncm_comite_equipo_tecnico,base_cuna.tec_informatico,1,1,1,1
access_pncm_comite_equipo_tecnico_especialista_integrales,pncm.comite.equipo.tecnico,pncm_comite_gestion.model_pncm_comite_equipo_tecnico,base_cuna.especialista_integrales,1,1,1,1
access_pncm_comite_equipo_tecnico_acompaniante_tecnico,pncm.comite.equipo.tecnico,pncm_comite_gestion.model_pncm_comite_equipo_tecnico,base_cuna.acompaniante_tecnico,1,0,0,0
access_pncm_comite_equipo_tecnico_especialista_nutricion,pncm.comite.equipo.tecnico,pncm_comite_gestion.model_pncm_comite_equipo_tecnico,base_cuna.especialista_nutricion,1,0,0,0
access_pncm_comite_equipo_tecnico_servicios_terceros,pncm.comite.equipo.tecnico,pncm_comite_gestion.model_pncm_comite_equipo_tecnico,base_cuna.servicios_terceros,1,0,0,0
access_pncm_comite_equipo_tecnico_asistente_adm,pncm.comite.equipo.tecnico,pncm_comite_gestion.model_pncm_comite_equipo_tecnico,base_cuna.asistente_adm,1,0,0,0
access_pncm_comite_equipo_tecnico_gestion_comunal,pncm.comite.equipo.tecnico,pncm_comite_gestion.model_pncm_comite_equipo_tecnico,base_cuna.gestion_comunal,1,0,0,0

access_resoluciones_comite_jefe_ut,resoluciones.comite,model_resoluciones_comite,base_cuna.jefe_ut,1,0,0,0
access_resoluciones_comite_coordinador,resoluciones.comite,model_resoluciones_comite,base_cuna.coordinador,1,0,0,0
access_resoluciones_comite_tec_informatico,resoluciones.comite,model_resoluciones_comite,base_cuna.tec_informatico,1,1,1,1
access_resoluciones_comite_especialista_integrales,resoluciones.comite,model_resoluciones_comite,base_cuna.especialista_integrales,1,1,1,1
access_resoluciones_comite_acompaniante_tecnico,resoluciones.comite,model_resoluciones_comite,base_cuna.acompaniante_tecnico,1,0,0,0
access_resoluciones_comite_especialista_nutricion,resoluciones.comite,model_resoluciones_comite,base_cuna.especialista_nutricion,1,0,0,0
access_resoluciones_comite_servicios_terceros,resoluciones.comite,model_resoluciones_comite,base_cuna.servicios_terceros,1,0,0,0
access_resoluciones_comite_asistente_adm,resoluciones.comite,model_resoluciones_comite,base_cuna.asistente_adm,1,0,0,0
access_resoluciones_comite_gestion_comunal,resoluciones.comite,model_resoluciones_comite,base_cuna.gestion_comunal,1,0,0,0

access_convenios_comite_jefe_ut,convenios.comite,model_convenios_comite,base_cuna.jefe_ut,1,0,0,0
access_convenios_comite_coordinador,convenios.comite,model_convenios_comite,base_cuna.coordinador,1,0,0,0
access_convenios_comite_tec_informatico,convenios.comite,model_convenios_comite,base_cuna.tec_informatico,1,1,1,1
access_convenios_comite_especialista_integrales,convenios.comite,model_convenios_comite,base_cuna.especialista_integrales,1,1,1,1
access_convenios_comite_acompaniante_tecnico,convenios.comite,model_convenios_comite,base_cuna.acompaniante_tecnico,1,0,0,0
access_convenios_comite_especialista_nutricion,convenios.comite,model_convenios_comite,base_cuna.especialista_nutricion,1,0,0,0
access_convenios_comite_servicios_terceros,convenios.comite,model_convenios_comite,base_cuna.servicios_terceros,1,0,0,0
access_convenios_comite_asistente_adm,convenios.comite,model_convenios_comite,base_cuna.asistente_adm,1,0,0,0
access_convenios_comite_gestion_comunal,convenios.comite,model_convenios_comite,base_cuna.gestion_comunal,1,0,0,0

access_adendas_comite_jefe_ut,adendas.comite,model_adendas_comite,base_cuna.jefe_ut,1,0,0,0
access_adendas_comite_coordinador,adendas.comite,model_adendas_comite,base_cuna.coordinador,1,0,0,0
access_adendas_comite_tec_informatico,adendas.comite,model_adendas_comite,base_cuna.tec_informatico,1,1,1,1
access_adendas_comite_especialista_integrales,adendas.comite,model_adendas_comite,base_cuna.especialista_integrales,1,1,1,1
access_adendas_comite_acompaniante_tecnico,adendas.comite,model_adendas_comite,base_cuna.acompaniante_tecnico,1,0,0,0
access_adendas_comite_especialista_nutricion,adendas.comite,model_adendas_comite,base_cuna.especialista_nutricion,1,0,0,0
access_adendas_comite_servicios_terceros,adendas.comite,model_adendas_comite,base_cuna.servicios_terceros,1,0,0,0
access_adendas_comite_asistente_adm,adendas.comite,model_adendas_comite,base_cuna.asistente_adm,1,0,0,0
access_adendas_comite_gestion_comunal,adendas.comite,model_adendas_comite,base_cuna.gestion_comunal,1,0,0,0

access_modulo_ninios_jefe_ut,modulo.ninios,model_modulo_ninios,base_cuna.jefe_ut,1,0,0,0
access_modulo_ninios_coordinador,modulo.ninios,model_modulo_ninios,base_cuna.coordinador,1,0,0,0
access_modulo_ninios_tec_informatico,modulo.ninios,model_modulo_ninios,base_cuna.tec_informatico,1,1,1,1
access_modulo_ninios_especialista_integrales,modulo.ninios,model_modulo_ninios,base_cuna.especialista_integrales,1,1,1,1
access_modulo_ninios_acompaniante_tecnico,modulo.ninios,model_modulo_ninios,base_cuna.acompaniante_tecnico,1,0,0,0
access_modulo_ninios_especialista_nutricion,modulo.ninios,model_modulo_ninios,base_cuna.especialista_nutricion,1,0,0,0
access_modulo_ninios_servicios_terceros,modulo.ninios,model_modulo_ninios,base_cuna.servicios_terceros,1,0,0,0
access_modulo_ninios_asistente_adm,modulo.ninios,model_modulo_ninios,base_cuna.asistente_adm,1,0,0,0

access_res_partner_jefe_ut,res.partner,base.model_res_partner,base_cuna.jefe_ut,1,0,0,0
access_res_partner_coordinador,res.partner,base.model_res_partner,base_cuna.coordinador,1,0,0,0
access_res_partner_tec_informatico,res.partner,base.model_res_partner,base_cuna.tec_informatico,1,1,1,1
access_res_partner_especialista_integrales,res.partner,base.model_res_partner,base_cuna.especialista_integrales,1,1,1,1
access_res_partner_acompaniante_tecnico,res.partner,base.model_res_partner,base_cuna.acompaniante_tecnico,1,0,0,0
access_res_partner_especialista_nutricion,res.partner,base.model_res_partner,base_cuna.especialista_nutricion,1,1,1,1
access_res_partner_servicios_terceros,res.partner,base.model_res_partner,base_cuna.servicios_terceros,1,0,0,0
access_res_partner_asistente_adm,res.partner,base.model_res_partner,base_cuna.asistente_adm,1,0,0,0

