"id","name","abrev"
120,"Visual parcial o total(Prob.Para ver aún con lentes/no puede ver)","DISC_VISUAL"
121,"Para oír parcial o total(Prob.Para oír aún con audifonos/no puede oír)","DISC_OIR"
122,"Para hablar parcial o total","DISC_HABLAR"
123,"Para usar brazos y manos/piernas y pies","DISC_EXTREMIDADES"
124,"Mental o intelectual (dificultades permanentes para entender o para relacionarse)","DISC_MENTAL"