id,name,model_id:id,group_id:id,perm_read,perm_write,perm_create,perm_unlink
access_perfil_puesto_trabajo_manager,perfil_puesto_trabajo_manager,model_perfil_puesto_trabajo,hr.group_hr_user,1,1,1,1
access_perfil_puesto_trabajo_user,perfil_puesto_trabajo_user,model_perfil_puesto_trabajo,,1,0,0,0
