"id","acronimo","name","activo","formula"
"TIB_0001","di002","DISCAPACITADO","True","PB = (PC + PE) X 0.15; PT = PC + PE + PB"
"TIB_0002","fa001","LICENCIADO DE LAS FUERZAS ARMADAS","True","PB = PE X 0.10; PT = PC + PE + PB"
"TIB_0003","fadi003","FFAA Y DISCAPACIDAD","True","PB = (PC + PE + PE X 0.10) x 0.15; PT = (PC + PE + PE X 0.10) + (PC + PE + PE X 0.10) x 0.15"