"id","name","periodo"
"1230","bcg","1_mes"
"1231","hvb","1_mes"
"1232","antiamarilica","15_mes"
"1233","influenza","7_mes"
"1234","influenza","8_mes"
"1235","influenza","24_36_mes"
"1236","ipv","2_mes"
"1237","ipv","4_mes"
"1238","neumococo","2_mes"
"1239","neumococo","4_mes"
"1240","neumococo","12_mes"
"1241","neumococo","24_36_mes"
"1242","pentavalente","2_mes"
"1243","pentavalente","4_mes"
"1244","pentavalente","6_mes"
"1245","apo","6_mes"
"1246","apo","18_mes"
"1247","dpt","18_mes"
"1248","rotavirus","2_mes"
"1249","rotavirus","4_mes"
"1250","spr","12_mes"
"1251","spr","18_mes"